{
  "project_info": {
    "project_number": "131767142988",
    "project_id": "neilanthonyteporfolio",
    "storage_bucket": "neilanthonyteporfolio.appspot.com"
  },
  "client": [
    {
      "client_info": {
        "mobilesdk_app_id": "1:131767142988:android:582ae9ed50f00c046102e9",
        "android_client_info": {
          "package_name": "com.neilanthonyteporfolio"
        }
      },
      "oauth_client": [
        {
          "client_id": "131767142988-0e91onj8dmjlqnhfeutjqci5u012tu0g.apps.googleusercontent.com",
          "client_type": 1,
          "android_info": {
            "package_name": "com.neilanthonyteporfolio",
            "certificate_hash": "8a3a437eceff88ee854841e32e5fa6bbbec51172"
          }
        },
        {
          "client_id": "131767142988-j7dpebg6qmg8mo7jn385j2mnahrvpj8f.apps.googleusercontent.com",
          "client_type": 3
        }
      ],
      "api_key": [
        {
          "current_key": "AIzaSyBduuSKT5wZ_MNE4uCo7PN8POHnu-p5QPc"
        }
      ],
      "services": {
        "appinvite_service": {
          "other_platform_oauth_client": [
            {
              "client_id": "131767142988-j7dpebg6qmg8mo7jn385j2mnahrvpj8f.apps.googleusercontent.com",
              "client_type": 3
            }
          ]
        }
      }
    }
  ],
  "configuration_version": "1"
}